^C:\USERS\THOMA\DOCUMENTS\GRAPHICS 2\E7_BLUR\E7_BLUR\SHADERS\HORIZONTALBLUR_PS.HLSL
C:\USERS\THOMA\DOCUMENTS\GRAPHICS 2\E7_BLUR\E7_BLUR\HORIZONTALBLUR_PS.CSO
^C:\USERS\THOMA\DOCUMENTS\GRAPHICS 2\E7_BLUR\E7_BLUR\SHADERS\HORIZONTALBLUR_VS.HLSL
C:\USERS\THOMA\DOCUMENTS\GRAPHICS 2\E7_BLUR\E7_BLUR\HORIZONTALBLUR_VS.CSO
^C:\USERS\THOMA\DOCUMENTS\GRAPHICS 2\E7_BLUR\E7_BLUR\SHADERS\TEXTURE_PS.HLSL
C:\USERS\THOMA\DOCUMENTS\GRAPHICS 2\E7_BLUR\E7_BLUR\TEXTURE_PS.CSO
^C:\USERS\THOMA\DOCUMENTS\GRAPHICS 2\E7_BLUR\E7_BLUR\SHADERS\TEXTURE_VS.HLSL
C:\USERS\THOMA\DOCUMENTS\GRAPHICS 2\E7_BLUR\E7_BLUR\TEXTURE_VS.CSO
^C:\USERS\THOMA\DOCUMENTS\GRAPHICS 2\E7_BLUR\E7_BLUR\SHADERS\VERTICALBLUR_PS.HLSL
C:\USERS\THOMA\DOCUMENTS\GRAPHICS 2\E7_BLUR\E7_BLUR\VERTICALBLUR_PS.CSO
^C:\USERS\THOMA\DOCUMENTS\GRAPHICS 2\E7_BLUR\E7_BLUR\SHADERS\VERTICALBLUR_VS.HLSL
C:\USERS\THOMA\DOCUMENTS\GRAPHICS 2\E7_BLUR\E7_BLUR\VERTICALBLUR_VS.CSO
^C:\USERS\THOMA\DOCUMENTS\GRAPHICS 2\E7_BLUR\E7_BLUR\DEPTH_PS.HLSL
C:\USERS\THOMA\DOCUMENTS\GRAPHICS 2\E7_BLUR\E7_BLUR\DEPTH_PS.CSO
^C:\USERS\THOMA\DOCUMENTS\GRAPHICS 2\E7_BLUR\E7_BLUR\DEPTH_VS.HLSL
C:\USERS\THOMA\DOCUMENTS\GRAPHICS 2\E7_BLUR\E7_BLUR\DEPTH_VS.CSO
^C:\USERS\THOMA\DOCUMENTS\GRAPHICS 2\E7_BLUR\E7_BLUR\SHADERS\LIGHT_PS.HLSL
C:\USERS\THOMA\DOCUMENTS\GRAPHICS 2\E7_BLUR\E7_BLUR\LIGHT_PS.CSO
^C:\USERS\THOMA\DOCUMENTS\GRAPHICS 2\E7_BLUR\E7_BLUR\SHADERS\LIGHT_VS.HLSL
C:\USERS\THOMA\DOCUMENTS\GRAPHICS 2\E7_BLUR\E7_BLUR\LIGHT_VS.CSO
